<svg
	xmlns="http://www.w3.org/2000/svg"
	xmlns:xlink="http://www.w3.org/1999/xlink" id="Layer_1" data-name="Layer 1" viewBox="0 0 425.2 113.39">
	<defs>
		<style>.cls-1{fill:#fff;}.cls-2{fill:url(#linear-gradient);}.cls-3{fill:url(#linear-gradient-2);}.cls-4{fill:url(#linear-gradient-3);}.cls-5{fill:url(#linear-gradient-4);}.cls-6{fill:url(#linear-gradient-5);}.cls-7{fill:url(#linear-gradient-6);}.cls-8{fill:url(#linear-gradient-7);}.cls-9{fill:url(#linear-gradient-8);}</style>
		<linearGradient id="linear-gradient" x1="61.9" y1="58.27" x2="108.99" y2="58.27" gradientUnits="userSpaceOnUse">
			<stop offset="0" stop-color="#ef4b48"/>
			<stop offset="1" stop-color="#591d5b"/>
		</linearGradient>
		<linearGradient id="linear-gradient-2" x1="35.95" y1="56" x2="83.05" y2="56" xlink:href="#linear-gradient"/>
		<linearGradient id="linear-gradient-3" x1="55.17" y1="88.9" x2="63.65" y2="80.42" xlink:href="#linear-gradient"/>
		<linearGradient id="linear-gradient-4" x1="79.73" y1="32.97" x2="88.22" y2="24.48" xlink:href="#linear-gradient"/>
		<linearGradient id="linear-gradient-5" x1="110.75" y1="62.51" x2="119.23" y2="54.03" xlink:href="#linear-gradient"/>
		<linearGradient id="linear-gradient-6" x1="47.36" y1="50.95" x2="53.61" y2="44.71" xlink:href="#linear-gradient"/>
		<linearGradient id="linear-gradient-7" x1="44.08" y1="86.95" x2="48.65" y2="82.38" xlink:href="#linear-gradient"/>
		<linearGradient id="linear-gradient-8" x1="94.62" y1="67.74" x2="99.19" y2="63.17" xlink:href="#linear-gradient"/>
	</defs>
	<title>logo-urbsense-rgb-main-light</title>
	<path class="cls-1" d="M141.33,78.65q-4.82,0-7.27-3t-2.47-8.82V46.9h9.5V64.77a7.17,7.17,0,0,0,1.13,4.36,3.75,3.75,0,0,0,3.2,1.51,7.3,7.3,0,0,0,3.68-1,8.59,8.59,0,0,0,3.15-3.5V46.9h9.49V67.38a3.24,3.24,0,0,0,.45,2,2.2,2.2,0,0,0,1.57.69v8a19.84,19.84,0,0,1-2.31.39c-.64.06-1.21.08-1.72.08q-5.11,0-5.82-4l-.18-1.9a12.91,12.91,0,0,1-5.31,4.54A16.83,16.83,0,0,1,141.33,78.65Z"/>
	<path class="cls-1" d="M188.87,55a18.23,18.23,0,0,0-6.23,1.13,7.61,7.61,0,0,0-4,3.2v18.7h-9.5V46.9h8.73v6.29A13.27,13.27,0,0,1,182,48.26a9.61,9.61,0,0,1,5.38-1.84h.95a3,3,0,0,1,.59.06Z"/>
	<path class="cls-1" d="M211.54,78.65a12.42,12.42,0,0,1-6.23-1.51,10.93,10.93,0,0,1-4.21-4.24v5.16h-8.25V34.73h9.49V52a11.35,11.35,0,0,1,4.13-4.18A12.69,12.69,0,0,1,218,47.58a13.15,13.15,0,0,1,4.27,3.47,16.5,16.5,0,0,1,2.79,5.2,19.65,19.65,0,0,1,1,6.38A18,18,0,0,1,225,69a15.9,15.9,0,0,1-3.06,5.1,14,14,0,0,1-4.63,3.39A13.74,13.74,0,0,1,211.54,78.65Zm-2.67-8a7.11,7.11,0,0,0,5.37-2.31,8,8,0,0,0,1.55-2.53,8.8,8.8,0,0,0,.56-3.17,9.65,9.65,0,0,0-.53-3.18,8.86,8.86,0,0,0-1.46-2.64A6.75,6.75,0,0,0,212.14,55a6.31,6.31,0,0,0-6.92.89,10.19,10.19,0,0,0-2.88,3.86v6.53a7.41,7.41,0,0,0,2.76,3.17A6.86,6.86,0,0,0,208.87,70.64Z"/>
	<path class="cls-1" d="M243.83,78.27a21.49,21.49,0,0,1-7.06-1.19,17,17,0,0,1-5.94-3.44l1.84-2.73a20.14,20.14,0,0,0,5.31,3.2,15.44,15.44,0,0,0,5.79,1.07,10.42,10.42,0,0,0,6-1.51A4.89,4.89,0,0,0,252,69.36a3.74,3.74,0,0,0-.59-2.16,5.17,5.17,0,0,0-1.75-1.51,13.44,13.44,0,0,0-2.91-1.16c-1.17-.34-2.53-.68-4.07-1-1.78-.44-3.32-.87-4.63-1.31a14.16,14.16,0,0,1-3.23-1.48,5.3,5.3,0,0,1-1.9-2.05,6.61,6.61,0,0,1-.63-3.06,8.83,8.83,0,0,1,.92-4.09,8.39,8.39,0,0,1,2.5-2.94,11.41,11.41,0,0,1,3.68-1.75,16.66,16.66,0,0,1,4.48-.59,17.41,17.41,0,0,1,6.47,1.15A12.87,12.87,0,0,1,255,50.43l-2,2.38a10.9,10.9,0,0,0-4.19-2.68,15,15,0,0,0-5.13-.89,12.63,12.63,0,0,0-3,.33,7.05,7.05,0,0,0-2.4,1,5.06,5.06,0,0,0-1.63,1.81,5.29,5.29,0,0,0-.6,2.58,4.21,4.21,0,0,0,.42,2,3.57,3.57,0,0,0,1.36,1.34,11.29,11.29,0,0,0,2.41,1c1,.3,2.14.61,3.53.92,2,.48,3.72.95,5.22,1.43a16.24,16.24,0,0,1,3.77,1.66,6.51,6.51,0,0,1,2.29,2.32,6.68,6.68,0,0,1,.77,3.32,8,8,0,0,1-3.27,6.76Q249.36,78.28,243.83,78.27Z"/>
	<path class="cls-1" d="M275.88,78.27A15.06,15.06,0,0,1,269.65,77a15.21,15.21,0,0,1-4.93-3.5,16.23,16.23,0,0,1-3.23-5.13,16.56,16.56,0,0,1-1.16-6.24A16.16,16.16,0,0,1,261.49,56a15.56,15.56,0,0,1,8.13-8.49A15.06,15.06,0,0,1,286.86,51a16.2,16.2,0,0,1,4.27,11.09c0,.32,0,.64,0,.95a4.13,4.13,0,0,1-.08.66H264.6a13.15,13.15,0,0,0,1.16,4.6,13,13,0,0,0,2.49,3.65,10.93,10.93,0,0,0,3.5,2.4,10.49,10.49,0,0,0,4.25.86,11.47,11.47,0,0,0,3-.41,12.74,12.74,0,0,0,2.73-1.13A9.69,9.69,0,0,0,284,71.89a8,8,0,0,0,1.52-2.29l3.5,1a10.39,10.39,0,0,1-2,3.12,13.94,13.94,0,0,1-3,2.43,14.67,14.67,0,0,1-3.8,1.6A16,16,0,0,1,275.88,78.27Zm11.4-17.69A12.55,12.55,0,0,0,286.12,56a12.41,12.41,0,0,0-2.49-3.53,11,11,0,0,0-3.54-2.32,11.4,11.4,0,0,0-8.54,0A10.89,10.89,0,0,0,268,52.51a11.38,11.38,0,0,0-2.44,3.56,13.57,13.57,0,0,0-1.1,4.51Z"/>
	<path class="cls-1" d="M323.18,77.67h-4V60.4c0-3.68-.54-6.35-1.6-8a5.51,5.51,0,0,0-5-2.49,10.16,10.16,0,0,0-3.56.65,12.65,12.65,0,0,0-3.33,1.84,13.41,13.41,0,0,0-2.7,2.82,12.65,12.65,0,0,0-1.75,3.53V77.67h-4V46.75h3.68v7a14.49,14.49,0,0,1,2.34-3,15.65,15.65,0,0,1,3.12-2.41A15.45,15.45,0,0,1,310,46.75a15.14,15.14,0,0,1,4-.53,9,9,0,0,1,4.37,1,7.52,7.52,0,0,1,2.82,2.67,12.43,12.43,0,0,1,1.54,4.21,29.29,29.29,0,0,1,.47,5.52Z"/>
	<path class="cls-1" d="M341.94,78.27a21.54,21.54,0,0,1-7.06-1.19,17,17,0,0,1-5.94-3.44l1.84-2.73a20.14,20.14,0,0,0,5.31,3.2,15.44,15.44,0,0,0,5.79,1.07,10.48,10.48,0,0,0,6-1.51,4.9,4.9,0,0,0,2.22-4.31,3.74,3.74,0,0,0-.59-2.16,5.17,5.17,0,0,0-1.75-1.51,13,13,0,0,0-2.91-1.16c-1.17-.34-2.52-.68-4.07-1-1.78-.44-3.32-.87-4.63-1.31a14.16,14.16,0,0,1-3.23-1.48,5.3,5.3,0,0,1-1.9-2.05,6.62,6.62,0,0,1-.62-3.06,8.71,8.71,0,0,1,.92-4.09,8.26,8.26,0,0,1,2.49-2.94,11.41,11.41,0,0,1,3.68-1.75,16.66,16.66,0,0,1,4.48-.59,17.41,17.41,0,0,1,6.47,1.15,12.87,12.87,0,0,1,4.69,3.06l-2,2.38A10.94,10.94,0,0,0,347,50.13a15.14,15.14,0,0,0-5.14-.89,12.63,12.63,0,0,0-3,.33,7.05,7.05,0,0,0-2.4,1,5.06,5.06,0,0,0-1.63,1.81,5.29,5.29,0,0,0-.6,2.58,4.21,4.21,0,0,0,.42,2A3.64,3.64,0,0,0,336,58.36a11.29,11.29,0,0,0,2.41,1c1,.3,2.14.61,3.53.92,2,.48,3.72.95,5.22,1.43a16.24,16.24,0,0,1,3.77,1.66,6.51,6.51,0,0,1,2.29,2.32A6.68,6.68,0,0,1,354,69a8,8,0,0,1-3.27,6.76Q347.47,78.28,341.94,78.27Z"/>
	<path class="cls-1" d="M374,78.27a15.06,15.06,0,0,1-11.16-4.78,16.23,16.23,0,0,1-3.23-5.13,16.76,16.76,0,0,1-1.16-6.24A16.36,16.36,0,0,1,359.6,56a15.56,15.56,0,0,1,8.13-8.49,15.77,15.77,0,0,1,12.4,0A14.62,14.62,0,0,1,385,51a16,16,0,0,1,3.15,5,16.34,16.34,0,0,1,1.13,6.05c0,.32,0,.64,0,.95a5.21,5.21,0,0,1-.09.66H362.71a13.15,13.15,0,0,0,1.16,4.6,13,13,0,0,0,2.49,3.65,10.86,10.86,0,0,0,3.51,2.4,10.44,10.44,0,0,0,4.24.86,11.47,11.47,0,0,0,3-.41,12.33,12.33,0,0,0,2.73-1.13,9.69,9.69,0,0,0,2.22-1.75,7.75,7.75,0,0,0,1.52-2.29l3.5,1a10.39,10.39,0,0,1-2,3.12,13.94,13.94,0,0,1-3,2.43,14.67,14.67,0,0,1-3.8,1.6A16,16,0,0,1,374,78.27Zm11.4-17.69A12.55,12.55,0,0,0,384.23,56a12.21,12.21,0,0,0-2.49-3.53,11,11,0,0,0-3.54-2.32,11.4,11.4,0,0,0-8.54,0,11,11,0,0,0-3.53,2.32,11.55,11.55,0,0,0-2.44,3.56,13.33,13.33,0,0,0-1.09,4.51Z"/>
	<path class="cls-2" d="M85.45,46.49h0A11.77,11.77,0,0,1,73.67,58.26v0A11.77,11.77,0,1,0,85.44,70.05h0A11.77,11.77,0,0,1,97.22,58.28v0A11.77,11.77,0,1,0,85.45,46.49Z"/>
	<path class="cls-3" d="M59.49,67.78h0A11.77,11.77,0,0,1,71.28,56v0A11.77,11.77,0,1,0,59.51,44.22h0A11.76,11.76,0,0,1,47.72,56v0A11.77,11.77,0,1,0,59.49,67.78Z"/>
	<path class="cls-4" d="M59.41,78.66a6,6,0,1,0,6,6A6,6,0,0,0,59.41,78.66Z"/>
	<path class="cls-5" d="M84,34.72a6,6,0,1,0-6-6A6,6,0,0,0,84,34.72Z"/>
	<path class="cls-6" d="M115,52.27a6,6,0,1,0,6,6A6,6,0,0,0,115,52.27Z"/>
	<path class="cls-7" d="M50.48,43.42a4.42,4.42,0,1,0,4.42,4.41A4.41,4.41,0,0,0,50.48,43.42Z"/>
	<path class="cls-8" d="M46.36,81.43a3.23,3.23,0,1,0,3.23,3.23A3.23,3.23,0,0,0,46.36,81.43Z"/>
	<path class="cls-9" d="M96.9,62.22a3.24,3.24,0,1,0,3.23,3.24A3.24,3.24,0,0,0,96.9,62.22Z"/>
</svg>